[gd_scene load_steps=3 format=2]

[ext_resource path="res://components/hud/card.tscn" type="PackedScene" id=1]
[ext_resource path="res://components/hud/card_stack.gd" type="Script" id=2]

[node name="CardStack" type="Control"]
mouse_filter = 2
script = ExtResource( 2 )
__meta__ = {
"_edit_use_anchors_": false
}

[node name="Card" parent="." instance=ExtResource( 1 )]
margin_top = -247.5
margin_bottom = 247.5
rect_scale = Vector2( 0.3, 0.3 )

[node name="Card2" parent="." instance=ExtResource( 1 )]
margin_left = 20.0
margin_top = -247.5
margin_right = 370.0
margin_bottom = 247.5
rect_scale = Vector2( 0.3, 0.3 )

[node name="Card3" parent="." instance=ExtResource( 1 )]
margin_left = 40.0
margin_top = -247.5
margin_right = 390.0
margin_bottom = 247.5
rect_scale = Vector2( 0.3, 0.3 )

[node name="Card4" parent="." instance=ExtResource( 1 )]
margin_left = 60.0
margin_top = -247.5
margin_right = 410.0
margin_bottom = 247.5
rect_scale = Vector2( 0.3, 0.3 )
